…
    ## The following objects are masked from 'package:base':
    ## 
    ##     format.pval, units

``` r
gapminder$lifeExp_lag <- Lag(gapminder$lifeExp)

  gapminder %>% 
  mutate(lifeExp_lag_final = lifeExp - lifeExp_lag, .keep = "all")
```

    ## # A tibble: 1,704 x 8
    ##    country continent  year lifeExp    pop gdpPercap lifeExp_lag lifeExp_lag_fin~
    ##    <fct>   <fct>     <int>   <dbl>  <int>     <dbl>       <dbl>            <dbl>
    ##  1 Afghan~ Asia       1952    28.8 8.43e6      779.        NA            NA     
    ##  2 Afghan~ Asia       1957    30.3 9.24e6      821.        28.8           1.53  
    ##  3 Afghan~ Asia       1962    32.0 1.03e7      853.        30.3           1.66  
    ##  4 Afghan~ Asia       1967    34.0 1.15e7      836.        32.0           2.02  
    ##  5 Afghan~ Asia       1972    36.1 1.31e7      740.        34.0           2.07  
    ##  6 Afghan~ Asia       1977    38.4 1.49e7      786.        36.1           2.35  
    ##  7 Afghan~ Asia       1982    39.9 1.29e7      978.        38.4           1.42  
    ##  8 Afghan~ Asia       1987    40.8 1.39e7      852.        39.9           0.968 
    ##  9 Afghan~ Asia       1992    41.7 1.63e7      649.        40.8           0.852 
    ## 10 Afghan~ Asia       1997    41.8 2.22e7      635.        41.7           0.0890
    ## # ... with 1,694 more rows

1.4 Filter gapminder so that it shows the max GDP per capita experienced
by each country.

Hint: you might find the max() function useful here.

``` r
gapminder %>% group_by(country) %>%
  summarise(max = max (gdpPercap))
```

    ## `summarise()` ungrouping output (override with `.groups` argument)

    ## # A tibble: 142 x 2
    ##    country        max
    ##    <fct>        <dbl>
    ##  1 Afghanistan   978.
    ##  2 Albania      5937.
    ##  3 Algeria      6223.
    ##  4 Angola       5523.
    ##  5 Argentina   12779.
    ##  6 Australia   34435.
    ##  7 Austria     36126.
    ##  8 Bahrain     29796.
    ##  9 Bangladesh   1391.
    ## 10 Belgium     33693.
    ## # ... with 132 more rows
…
